…
``` r
# Creating A Data Frame
set.seed(2)
x = rnorm(1000, 0, 1)
y = rnorm(1000, 0, 1)
var_logical = x + y > 0
var_numeric = as.numeric(var_logical)
var_factor = as.factor(var_logical)
data_table2=tibble(x, y, var_logical, var_numeric, var_factor)
data_table2
```

    ## # A tibble: 1,000 x 5
    ##          x       y var_logical var_numeric var_factor
    ##      <dbl>   <dbl> <lgl>             <dbl> <fct>     
    ##  1 -0.897   0.466  FALSE                 0 FALSE     
    ##  2  0.185   0.955  TRUE                  1 TRUE      
    ##  3  1.59   -0.947  TRUE                  1 TRUE      
    ##  4 -1.13    0.0386 FALSE                 0 FALSE     
    ##  5 -0.0803 -0.831  FALSE                 0 FALSE     
    ##  6  0.132   0.557  TRUE                  1 TRUE      
    ##  7  0.708  -0.112  TRUE                  1 TRUE      
    ##  8 -0.240  -0.958  FALSE                 0 FALSE     
    ##  9  1.98   -0.468  TRUE                  1 TRUE      
    ## 10 -0.139   1.04   TRUE                  1 TRUE      
    ## # ... with 990 more rows
…
